id;firstname;lastname;username;email;password;roles
1;without;tenderize;blah brushfire quicker;Nestor.Prosacco78@gmail.com;mmm;haunt
2;ethnicity shrilly an;gene;stormy;Jan.Sporer80@hotmail.com;dollarize before;melody
3;palatable who violin;beside career;caliber general calculus;Abagail_Buckridge97@gmail.com;bah meter;quarrelsomely with amidst
4;across;annually seemingly;geez;Halie82@hotmail.com;zealous cheerfully funny;enclose whether
5;intimate live strip;power moral handmade;worth perfection;Lilly90@hotmail.com;outside tattered seriously;equal
6;phooey nor;after ouch;a incommode neatly;Allison57@yahoo.com;trained;visitor
7;founding tremendously;meh;unused;Elenor_Herman99@yahoo.com;cuddly respectful;ridge glistening
8;incidentally yowza afore;odd photograph arch;the;Francesco.Weber@gmail.com;before whenever content;flawed
9;aw;third;vinegar heart-throb;Elta_Ziemann@gmail.com;disburse;noxious stepdaughter
10;once;overgraze overgraze;scarcely;Abbigail.Spinka24@gmail.com;rudely bloop officially;unique arrogantly
